{
  "relevant_periods": [13, 15, 38, 39, 41, 54, 60, 75, 81, 84, 85, 86, 87, 96, 116, 117, 129],
  "time_gran": 8,
  "histogram": [0, 1, 1, 0, 0, 1, 0, 1, 0, 2, 1, 1, 2, 4, 1, 4, 1, 2, 1, 1, 0, 0, 1, 0, 0, 0, 1, 0, 0, 1, 0, 1, 1, 1, 1, 1, 2, 1, 5, 9, 2, 6, 1, 1, 2, 1, 1, 3, 1, 0, 1, 0, 0, 2, 5, 2, 0, 1, 2, 0, 4, 1, 0, 2, 0, 2, 1, 0, 0, 2, 0, 0, 0, 2, 0, 4, 1, 0, 1, 0, 0, 4, 1, 0, 8, 9, 11, 5, 0, 1, 2, 0, 1, 1, 1, 0, 4, 0, 0, 1, 2, 0, 1, 3, 0, 2, 0, 3, 1, 0, 1, 2, 0, 0, 1, 1, 7, 13, 2, 1, 1, 0, 1, 0, 1, 0, 0, 0, 0, 8, 0, 0, 0, 0, 0, 0, 0, 0, 0, 0, 0, 0, 0, 0, 0, 0, 0, 0, 0, 0, 0, 0, 0, 0, 0, 0, 0, 0, 0, 0, 0, 0, 0, 0, 0, 0, 0, 0, 0, 0, 0, 0, 0, 0, 0, 0, 0, 0, 0]}
